Simulations - 6 FiveThirtyEight
…
result

  [1]  33  77 154 111  86 105  60  84  48 134 238  54  30 104  49 153 119  53
 [19]  51  68  96 126  48 341 108  64  60  56  64 208 100 172  44  57  53  81
 [37] 103  75  29 202  65 138  72  50  98  91  66  68  57  80  76  42 204  80
 [55] 113 181 171 126 114 191  53 112 109 114  32 169  45  76  75 139  89 128
 [73]  82  90 140 121  79 110  34  52  83  97 115 161  80  62  59  75 173  60
 [91]  88  57  94  92  71 136 117  82 113  56

df <- crossing(num_sides = 1:10, trial = 1:1000) %>% 
  mutate(sim = map_dbl(num_sides, simulate_with_purrr))
df

# A tibble: 10,000 × 3
   num_sides trial   sim
       <int> <int> <dbl>
 1         1     1     1
 2         1     2     1
 3         1     3     1
 4         1     4     1
 5         1     5     1
 6         1     6     1
 7         1     7     1
 8         1     8     1
 9         1     9     1
10         1    10     1
# … with 9,990 more rows
…
